{
  "prepare_queue": {
    "installed": [],
    "uninstalled": []
  },
  "config_munge": {
    "files": {}
  },
  "installed_plugins": {
    "cordova-plugin-console": {
      "PACKAGE_NAME": "com.confeeds.condofeeds"
    },
    "cordova-plugin-device": {
      "PACKAGE_NAME": "com.confeeds.condofeeds"
    },
    "cordova-plugin-dialogs": {
      "PACKAGE_NAME": "com.confeeds.condofeeds"
    },
    "cordova-plugin-http": {
      "PACKAGE_NAME": "com.confeeds.condofeeds"
    },
    "cordova-plugin-nativestorage": {
      "PACKAGE_NAME": "com.confeeds.condofeeds"
    },
    "cordova-plugin-network-information": {
      "PACKAGE_NAME": "com.confeeds.condofeeds"
    },
    "cordova-plugin-splashscreen": {
      "PACKAGE_NAME": "com.confeeds.condofeeds"
    },
    "cordova-plugin-statusbar": {
      "PACKAGE_NAME": "com.confeeds.condofeeds"
    },
    "cordova-plugin-touch-id": {
      "PACKAGE_NAME": "com.confeeds.condofeeds"
    },
    "cordova-plugin-whitelist": {
      "PACKAGE_NAME": "com.confeeds.condofeeds"
    },
    "ionic-plugin-keyboard": {
      "PACKAGE_NAME": "com.confeeds.condofeeds"
    },
    "onesignal-cordova-plugin": {
      "PACKAGE_NAME": "com.confeeds.condofeeds"
    },
    "cordova-plugin-hotspot": {
      "PACKAGE_NAME": "com.confeeds.condofeeds"
    },
    "cordova-plugin-ionic-webview": {
      "PACKAGE_NAME": "com.confeeds.condofeeds"
    }
  },
  "dependent_plugins": {
    "cordova-plugin-compat": {
      "PACKAGE_NAME": "com.confeeds.condofeeds"
    },
    "cordova-plugin-file": {
      "PACKAGE_NAME": "com.confeeds.condofeeds"
    }
  }
}